Assignment 2/counter.vcd
$date
  Sat Feb 12 11:21:41 2022
$end
$version
  GHDL v0
$end
$timescale
  1 fs
$end
$scope module standard $end
$upscope $end
$scope module std_logic_1164 $end
$upscope $end
$scope module numeric_std $end
$upscope $end
$scope module tb_counter $end
$var reg 1 ! en $end
$var reg 1 " clk $end
$var reg 4 # couta[3:0] $end
$var reg 4 $ coutb[3:0] $end
$var reg 1 % pulse_o $end
$comment clk_period is not handled $end
$scope module c0 $end
$var reg 1 & en $end
$var reg 1 ' clk $end
$var reg 4 ( cout[3:0] $end
$var reg 1 ) a $end
$var reg 1 * b $end
$var reg 1 + c $end
$var reg 1 , d $end
$upscope $end
$scope module c1 $end
$var reg 1 - en $end
$var reg 1 . clk $end
$var reg 4 / cout[3:0] $end
$var reg 4 0 cnt[3:0] $end
$upscope $end
$upscope $end
$enddefinitions $end
#0
0!
1"
b0000 #
b0000 $
0%
0&
1'
b0000 (
0)
0*
0+
0,
0-
1.
b0000 /
b0000 0
#5000000
0"
0'
0.
#10000000
1!
1"
b0001 #
b0001 $
1&
1'
b0001 (
1)
1-
1.
b0001 /
b0001 0
#15000000
0"
0'
0.
#20000000
1"
b0010 #
b0010 $
1'
b0010 (
0)
1*
1.
b0010 /
b0010 0
#25000000
0"
0'
0.
#30000000
1"
b0011 #
b0011 $
1'
b0011 (
1)
1.
b0011 /
b0011 0
#35000000
0"
0'
0.
#40000000
1"
b0100 #
b0100 $
1'
b0100 (
0)
0*
1+
1.
b0100 /
b0100 0
#45000000
0"
0'
0.
#50000000
1"
b0101 #
b0101 $
1'
b0101 (
1)
1.
b0101 /
b0101 0
#55000000
0"
0'
0.
#60000000
1"
b0110 #
b0110 $
1'
b0110 (
0)
1*
1.
b0110 /
b0110 0
#65000000
0"
0'
0.
#70000000
1"
b0111 #
b0111 $
1'
b0111 (
1)
1.
b0111 /
b0111 0
#75000000
0"
0'
0.
#80000000
1"
b1000 #
b1000 $
1'
b1000 (
0)
0*
0+
1,
1.
b1000 /
b1000 0
#85000000
0"
0'
0.
#90000000
1"
b1001 #
b1001 $
1'
b1001 (
1)
1.
b1001 /
b1001 0
#95000000
0"
0'
0.
#100000000
1"
b1010 #
b1010 $
1'
b1010 (
0)
1*
1.
b1010 /
b1010 0
#105000000
0"
0'
0.
#110000000
1"
b1011 #
b1011 $
1'
b1011 (
1)
1.
b1011 /
b1011 0
#115000000
0"
0'
0.
#120000000
1"
b1100 #
b1100 $
1'
b1100 (
0)
0*
1+
1.
b1100 /
b1100 0
#125000000
0"
0'
0.
#130000000
1"
b0000 #
b0000 $
1'
b0000 (
0+
0,
1.
b0000 /
b0000 0
#135000000
0"
0'
0.
#140000000
1"
b0001 #
b0001 $
1'
b0001 (
1)
1.
b0001 /
b0001 0
#145000000
0"
0'
0.
#150000000
1"
b0010 #
b0010 $
1'
b0010 (
0)
1*
1.
b0010 /
b0010 0
#155000000
0"
0'
0.
#160000000
1"
b0011 #
b0011 $
1'
b0011 (
1)
1.
b0011 /
b0011 0
#165000000
0"
0'
0.
#170000000
1"
b0100 #
b0100 $
1'
b0100 (
0)
0*
1+
1.
b0100 /
b0100 0
#175000000
0"
0'
0.
#180000000
1"
b0101 #
b0101 $
1'
b0101 (
1)
1.
b0101 /
b0101 0
#185000000
0"
0'
0.
#190000000
1"
b0110 #
b0110 $
1'
b0110 (
0)
1*
1.
b0110 /
b0110 0
#195000000
0"
0'
0.
#200000000
1"
b0111 #
b0111 $
1'
b0111 (
1)
1.
b0111 /
b0111 0
#205000000
0"
0'
0.
#210000000
1"
b1000 #
b1000 $
1'
b1000 (
0)
0*
0+
1,
1.
b1000 /
b1000 0
#215000000
0"
0'
0.
#220000000
1"
b1001 #
b1001 $
1'
b1001 (
1)
1.
b1001 /
b1001 0
#225000000
0"
0'
0.
#230000000
1"
b1010 #
b1010 $
1'
b1010 (
0)
1*
1.
b1010 /
b1010 0
#235000000
0"
0'
0.
#240000000
1"
b1011 #
b1011 $
1'
b1011 (
1)
1.
b1011 /
b1011 0
#245000000
0"
0'
0.
#250000000
1"
b1100 #
b1100 $
1'
b1100 (
0)
0*
1+
1.
b1100 /
b1100 0
#255000000
0"
0'
0.
#260000000
1"
b0000 #
b0000 $
1'
b0000 (
0+
0,
1.
b0000 /
b0000 0
#265000000
0"
0'
0.
#270000000
1"
b0001 #
b0001 $
1'
b0001 (
1)
1.
b0001 /
b0001 0
#275000000
0"
0'
0.
#280000000
1"
b0010 #
b0010 $
1'
b0010 (
0)
1*
1.
b0010 /
b0010 0
#285000000
0"
0'
0.
#290000000
1"
b0011 #
b0011 $
1'
b0011 (
1)
1.
b0011 /
b0011 0
#295000000
0"
0'
0.
#300000000
1"
b0100 #
b0100 $
1'
b0100 (
0)
0*
1+
1.
b0100 /
b0100 0
#305000000
0"
0'
0.
#310000000
1"
b0101 #
b0101 $
1'
b0101 (
1)
1.
b0101 /
b0101 0
#315000000
0"
0'
0.
#320000000
1"
b0110 #
b0110 $
1'
b0110 (
0)
1*
1.
b0110 /
b0110 0
#325000000
0"
0'
0.
#330000000
1"
b0111 #
b0111 $
1'
b0111 (
1)
1.
b0111 /
b0111 0
#335000000
0"
0'
0.
#340000000
1"
b1000 #
b1000 $
1'
b1000 (
0)
0*
0+
1,
1.
b1000 /
b1000 0
#345000000
0"
0'
0.
#350000000
1"
b1001 #
b1001 $
1'
b1001 (
1)
1.
b1001 /
b1001 0
#355000000
0"
0'
0.
#360000000
1"
b1010 #
b1010 $
1'
b1010 (
0)
1*
1.
b1010 /
b1010 0
#365000000
0"
0'
0.
#370000000
1"
b1011 #
b1011 $
1'
b1011 (
1)
1.
b1011 /
b1011 0
#375000000
0"
0'
0.
#380000000
1"
b1100 #
b1100 $
1'
b1100 (
0)
0*
1+
1.
b1100 /
b1100 0
#385000000
0"
0'
0.
#390000000
1"
b0000 #
b0000 $
1'
b0000 (
0+
0,
1.
b0000 /
b0000 0
#395000000
0"
0'
0.
#400000000
1"
b0001 #
b0001 $
1'
b0001 (
1)
1.
b0001 /
b0001 0
#405000000
0"
0'
0.
#410000000
1"
b0010 #
b0010 $
1'
b0010 (
0)
1*
1.
b0010 /
b0010 0
#415000000
0"
0'
0.
#420000000
1"
b0011 #
b0011 $
1'
b0011 (
1)
1.
b0011 /
b0011 0
#425000000
0"
0'
0.
#430000000
1"
b0100 #
b0100 $
1'
b0100 (
0)
0*
1+
1.
b0100 /
b0100 0
#435000000
0"
0'
0.
#440000000
1"
b0101 #
b0101 $
1'
b0101 (
1)
1.
b0101 /
b0101 0
#445000000
0"
0'
0.
#450000000
1"
b0110 #
b0110 $
1'
b0110 (
0)
1*
1.
b0110 /
b0110 0
#455000000
0"
0'
0.
#460000000
1"
b0111 #
b0111 $
1'
b0111 (
1)
1.
b0111 /
b0111 0
#465000000
0"
0'
0.
#470000000
1"
b1000 #
b1000 $
1'
b1000 (
0)
0*
0+
1,
1.
b1000 /
b1000 0
#475000000
0"
0'
0.
#480000000
1"
b1001 #
b1001 $
1'
b1001 (
1)
1.
b1001 /
b1001 0
#485000000
0"
0'
0.
#490000000
1"
b1010 #
b1010 $
1'
b1010 (
0)
1*
1.
b1010 /
b1010 0
#495000000
0"
0'
0.
#500000000
1"
b1011 #
b1011 $
1'
b1011 (
1)
1.
b1011 /
b1011 0
